,alinea_id,alinea,article,title,topic,law_description,referencia
68,68,1,25A, CONTAGEM DO TEMPO DE SERVIÇO MILITAR OBRIGATÓRIO ,"['Serviço Militar', 'Tempo de Serviço']","1. O tempo de serviço militar obrigatório e as correspondentes bonificações dos subscritores da Caixa Geral de Aposentações, I. P., 
apurados em processo de contagem prévia de tempo de serviço ou no âmbito da instrução de processo de atribuição de pensão de 
aposentação ou reforma ou de pensão de sobrevivência cujo despacho seja proferido a partir de 1 de janeiro de 2018 são contados 
sem encargos para o subscritor. ",[' 1']
69,69,2,25A, CONTAGEM DO TEMPO DE SERVIÇO MILITAR OBRIGATÓRIO ,[''],"2. O disposto no número anterior não é aplicável às situações de passagem à aposentação ou reforma com efeitos reportados a 
data anterior a 1 de janeiro de 2018, nem ao tempo de serviço militar e correspondentes bonificações que tenha sido objeto de
despacho de contagem anterior àquela data, independentemente da situação da dívida de quotas nele fixada. ",[' 25a.1(from)']
70,70,3,25A, CONTAGEM DO TEMPO DE SERVIÇO MILITAR OBRIGATÓRIO ,[''],"3. As bonificações abrangidas pelo disposto no n.º 1 são apenas as relacionadas com as condições especiais da prestação do serviço 
militar obrigatório, com exclusão de quaisquer outras, nomeadamente das atribuídas por estatuto profissional do subscritor. ",[' 25a.1(from)']
71,71,4,25A, CONTAGEM DO TEMPO DE SERVIÇO MILITAR OBRIGATÓRIO ,['Tempo de Serviço'],"4. O tempo contado nos termos do presente artigo não releva para apuramento da remuneração de referência a considerar no 
cálculo da pensão dos subscritores inscritos na CGA a partir de 1 de setembro de 1993 a que seja aplicável o regime de cálculo da 
segurança social. ",['']
72,72,5,25A, CONTAGEM DO TEMPO DE SERVIÇO MILITAR OBRIGATÓRIO ,"['Tempo de Serviço', 'Serviço Militar']","5. A contagem do serviço militar obrigatório e das correspondentes bonificações de antigos combatentes continua a regular-se pela 
legislação que lhes é especificamente aplicável. ",['']
