,topic_id,topic,alinea_id,alinea,article,a.law_description,ref_alinea_id,ref_alinea,ref_article,ref_law_description
205,4,Acumulação de cargos,142,1, 48,"As remunerações a considerar para os efeitos do artigo anterior serão as abrangidas pelo n.º 1 do artigo 6.º, com exceção das que 
não tiverem carácter permanente, das gratificações que não forem de atribuição obrigatória, das remunerações complementares 
por serviço prestado no ultramar e das resultantes da acumulação de outros cargos.",150,1, 52,"1. Independentemente do preceituado no artigo anterior, o subscritor que, em regime de comissão ou de requisição, tenha 
prestado continuadamente serviço nos dois últimos anos em organismos de coordenação económica poderá optar, para o cômputo 
da pensão nos termos dos artigos 47.º a 50.º, pelas remunerações auferidas nessas funções."
208,4,Acumulação de cargos,142,1, 48,"As remunerações a considerar para os efeitos do artigo anterior serão as abrangidas pelo n.º 1 do artigo 6.º, com exceção das que 
não tiverem carácter permanente, das gratificações que não forem de atribuição obrigatória, das remunerações complementares 
por serviço prestado no ultramar e das resultantes da acumulação de outros cargos.",137,1, 47,"1. Para determinar a remuneração mensal atende-se às seguintes parcelas, que respeitem ao cargo pelo qual o subscritor é 
aposentado: a) O ordenado ou outra retribuição base de carácter mensal, ou a duodécima parte da que for estabelecida por ano ou 
corresponder ao número de dias de serviço anual, quando fixada por dia ou por hora; b) A média mensal das demais remunerações
percebidas pelo subscritor nos dois últimos anos e que devam ser consideradas nos termos do artigo seguinte."
211,4,Acumulação de cargos,142,1, 48,"As remunerações a considerar para os efeitos do artigo anterior serão as abrangidas pelo n.º 1 do artigo 6.º, com exceção das que 
não tiverem carácter permanente, das gratificações que não forem de atribuição obrigatória, das remunerações complementares 
por serviço prestado no ultramar e das resultantes da acumulação de outros cargos.",143,1, 49,"No caso de aposentação por incapacidade motivada pela prestação de serviço militar, a pensão, observado o disposto nos artigos 
anteriores, tem por base as remunerações correspondentes a esse serviço, se forem superiores às do cargo pelo qual o subscritor é 
aposentado."
214,4,Acumulação de cargos,142,1, 48,"As remunerações a considerar para os efeitos do artigo anterior serão as abrangidas pelo n.º 1 do artigo 6.º, com exceção das que 
não tiverem carácter permanente, das gratificações que não forem de atribuição obrigatória, das remunerações complementares 
por serviço prestado no ultramar e das resultantes da acumulação de outros cargos.",291,1, 121,"1. Sem prejuízo do disposto no artigo 51.º, o cálculo da pensão de reforma tem por base as remunerações de carácter permanente 
referidas nos artigos 47.º e 48.º, que correspondam ao último posto no ativo."
217,4,Acumulação de cargos,142,1, 48,"As remunerações a considerar para os efeitos do artigo anterior serão as abrangidas pelo n.º 1 do artigo 6.º, com exceção das que 
não tiverem carácter permanente, das gratificações que não forem de atribuição obrigatória, das remunerações complementares 
por serviço prestado no ultramar e das resultantes da acumulação de outros cargos.",151,2, 52,"2. O regime estabelecido no número anterior é igualmente aplicável ao caso previsto no artigo 12.º, sem prejuízo do disposto no 
artigo 48.º quanto às remunerações complementares por serviço prestado no ultramar."
222,4,Acumulação de cargos,144,1, 50,"1. Se durante os dois últimos anos o subscritor houver exercido sucessivamente dois ou mais cargos a que a lei em vigor à data dos 
factos previstos no n.º 2 do artigo 33.º atribua remunerações diferentes, atender-se-á à média destas, na proporção do tempo de 
serviço em cada cargo.",150,1, 52,"1. Independentemente do preceituado no artigo anterior, o subscritor que, em regime de comissão ou de requisição, tenha 
prestado continuadamente serviço nos dois últimos anos em organismos de coordenação económica poderá optar, para o cômputo 
da pensão nos termos dos artigos 47.º a 50.º, pelas remunerações auferidas nessas funções."
224,4,Acumulação de cargos,144,1, 50,"1. Se durante os dois últimos anos o subscritor houver exercido sucessivamente dois ou mais cargos a que a lei em vigor à data dos 
factos previstos no n.º 2 do artigo 33.º atribua remunerações diferentes, atender-se-á à média destas, na proporção do tempo de 
serviço em cada cargo.",145,2, 50,"2. Quando, porém, a sucessão de cargos corresponda a acesso, previsto na lei, a lugar superior da mesma hierarquia ou do mesmo 
serviço, atender-se-á somente à remuneração relativa ao último desses cargos, qualquer que seja o tempo de permanência nele."
387,4,Acumulação de cargos,294,1, 122,"O militar dos quadros permanentes que esteja a exercer continuadamente, nos últimos dois anos, cargo considerado de comissão 
normal pela legislação militar ou, a titulo definitivo, cargo civil poderá optar pela pensão de reforma que corresponda à 
remuneração permanente de qualquer desses cargos, desde que os mesmos confiram direito de aposentação.",286,2, 117,"2. No caso de exercício de cargo previsto no artigo 122.º, a que corresponda remuneração de montante superior ao da pensão de
reserva, a quota devida incidirá apenas sobre essa remuneração."
390,4,Acumulação de cargos,294,1, 122,"O militar dos quadros permanentes que esteja a exercer continuadamente, nos últimos dois anos, cargo considerado de comissão 
normal pela legislação militar ou, a titulo definitivo, cargo civil poderá optar pela pensão de reforma que corresponda à 
remuneração permanente de qualquer desses cargos, desde que os mesmos confiram direito de aposentação.",289,3, 120,"3. O disposto no número anterior não prejudica a opção pela pensão correspondente à remuneração dos cargos mencionados no 
artigo 122.º ou à média decenal prevista no artigo 51.º, desde que se verifiquem as condições exigidas por um ou outro destes
preceitos."
