,topic_id,topic,alinea_id,alinea,article,a.law_description,ref_alinea_id,ref_alinea,ref_article,ref_law_description
154,13,Aposentação voluntária,115,1, 39,"1. A aposentação depende necessariamente de requerimento do interessado nos casos previstos nos n.os 1 e 2 do artigo 37.º e nos 
artigos 37.º-A, 37.º-B e 40.º",117,3, 39,"3. No caso do n.º 1 do presente artigo, o requerimento de aposentação não terá seguimento sem o prévio pagamento das quotas 
correspondentes ao tempo mínimo de 5 anos de serviço, quando este for indispensável para a aposentação."
156,13,Aposentação voluntária,118,4, 39,"4. O pedido de aposentação pode ser apresentado com a antecedência máxima de três meses em relação à data em que o 
interessado reúna todos os requisitos para a aposentação.",119,5, 39,"5. O requerente pode indicar, no pedido de aposentação, uma data posterior a considerar pela CGA para os efeitos do n.º 1 do 
artigo 43.º, sendo tal indicação obrigatória nos pedidos apresentados nos termos do número anterior."
174,13,Aposentação voluntária,128,1, 43,"1. O regime da aposentação voluntária que não dependa de verificação de incapacidade fixa-se com base na lei em vigor à data em 
que seja recebido o pedido de aposentação pela CGA, sem prejuízo do disposto no n.º 7 do artigo 39.º, e na situação existente à 
data em que o mesmo seja despachado.",287,1, 120,"1. Na reforma de militares que transitem da situação de reserva, e não reúnam as condições legais para a atualização automática 
das respetivas pensões de reserva ou não hajam completado os requisitos fixados na lei para a revisão dessas pensões, a 
remuneração a considerar para os efeitos do artigo 43.º é a que se encontrar estabelecida à data da passagem à reserva, salvo o 
disposto no n.º 3 do presente artigo. Na determinação da pensão de reforma, aquela remuneração será acrescida das últimas 
diuturnidades vigentes para os militares de igual posto, graduação e quadro do ativo, observando-se ainda as normas estabelecidas 
para a generalidade dos subscritores da Caixa."
176,13,Aposentação voluntária,128,1, 43,"1. O regime da aposentação voluntária que não dependa de verificação de incapacidade fixa-se com base na lei em vigor à data em 
que seja recebido o pedido de aposentação pela CGA, sem prejuízo do disposto no n.º 7 do artigo 39.º, e na situação existente à 
data em que o mesmo seja despachado.",130,3, 43,"3. O disposto no n.º 1 não prejudica os efeitos que a lei atribua, em matéria de aposentação, a situações anteriores."
178,13,Aposentação voluntária,128,1, 43,"1. O regime da aposentação voluntária que não dependa de verificação de incapacidade fixa-se com base na lei em vigor à data em 
que seja recebido o pedido de aposentação pela CGA, sem prejuízo do disposto no n.º 7 do artigo 39.º, e na situação existente à 
data em que o mesmo seja despachado.",119,5, 39,"5. O requerente pode indicar, no pedido de aposentação, uma data posterior a considerar pela CGA para os efeitos do n.º 1 do 
artigo 43.º, sendo tal indicação obrigatória nos pedidos apresentados nos termos do número anterior."
180,13,Aposentação voluntária,128,1, 43,"1. O regime da aposentação voluntária que não dependa de verificação de incapacidade fixa-se com base na lei em vigor à data em 
que seja recebido o pedido de aposentação pela CGA, sem prejuízo do disposto no n.º 7 do artigo 39.º, e na situação existente à 
data em que o mesmo seja despachado.",89,2, 33,"2. Para os efeitos do n.º 1 contar-se-á o tempo decorrido até à data em que se verificar:
a) Qualquer dos factos previstos nos n.os 1 e 2 do artigo 43.º;
b) A cessação de funções, quer esta seja definitiva, quer resulte de passagem à licença ilimitada ou a outra situação sem direito a 
remuneração, quando ocorra anteriormente a qualquer dos factos a que se refere a alínea a);
c) O termo do subsídio legal de tratamento, percebido posteriormente aos mesmos factos. "
182,13,Aposentação voluntária,128,1, 43,"1. O regime da aposentação voluntária que não dependa de verificação de incapacidade fixa-se com base na lei em vigor à data em 
que seja recebido o pedido de aposentação pela CGA, sem prejuízo do disposto no n.º 7 do artigo 39.º, e na situação existente à 
data em que o mesmo seja despachado.",297,1, 132,"1. O presente Estatuto entra em vigor em 1 de janeiro de 1973 e é aplicável, sem prejuízo do disposto no artigo 43.º, aos processos 
pendentes."
