,topic_id,topic,alinea_id,alinea,article,a.law_description,ref_alinea_id,ref_alinea,ref_article,ref_law_description
294,18,Autorização do exercício de funções,204,1, 78,"1. Os aposentados, reformados, reservistas fora de efetividade e equiparados não podem exercer atividade profissional 
remunerada para quaisquer serviços da administração central, regional e autárquica, empresas públicas, entidades públicas 
empresariais, entidades que integram o setor empresarial regional e municipal e demais pessoas coletivas públicas, exceto quando
haja lei especial que o permita ou quando, por razões de interesse público excecional, sejam autorizados pelos membros do 
Governo responsáveis pelas áreas das finanças e da Administração Pública.",211,2, 79,"2. As condições de cumulação de remunerações referidas no número anterior são reconhecidas no despacho de autorização 
previsto no n.º 1 do artigo anterior"
296,18,Autorização do exercício de funções,204,1, 78,"1. Os aposentados, reformados, reservistas fora de efetividade e equiparados não podem exercer atividade profissional 
remunerada para quaisquer serviços da administração central, regional e autárquica, empresas públicas, entidades públicas 
empresariais, entidades que integram o setor empresarial regional e municipal e demais pessoas coletivas públicas, exceto quando
haja lei especial que o permita ou quando, por razões de interesse público excecional, sejam autorizados pelos membros do 
Governo responsáveis pelas áreas das finanças e da Administração Pública.",205,2, 78,"2. Não podem exercer atividade profissional remunerada nos termos do número anterior: a) Os aposentados e reformados que se 
tenham aposentado ou reformado com fundamento em incapacidade; b) Os aposentados e reformados por força de aplicação da 
pena disciplinar de aposentação ou reforma compulsiva."
298,18,Autorização do exercício de funções,204,1, 78,"1. Os aposentados, reformados, reservistas fora de efetividade e equiparados não podem exercer atividade profissional 
remunerada para quaisquer serviços da administração central, regional e autárquica, empresas públicas, entidades públicas 
empresariais, entidades que integram o setor empresarial regional e municipal e demais pessoas coletivas públicas, exceto quando
haja lei especial que o permita ou quando, por razões de interesse público excecional, sejam autorizados pelos membros do 
Governo responsáveis pelas áreas das finanças e da Administração Pública.",209,7, 78,"7. Os termos a que deve obedecer a autorização de exercício de funções prevista no n.º 1 pelos aposentados com recurso a mecanismos
legais de antecipação de aposentação são estabelecidos, atento o interesse público subjacente, por portaria dos membros do Governo 
responsáveis pelas áreas das finanças e da Administração Pública, sem prejuízo do disposto nos números anteriores."
300,18,Autorização do exercício de funções,204,1, 78,"1. Os aposentados, reformados, reservistas fora de efetividade e equiparados não podem exercer atividade profissional 
remunerada para quaisquer serviços da administração central, regional e autárquica, empresas públicas, entidades públicas 
empresariais, entidades que integram o setor empresarial regional e municipal e demais pessoas coletivas públicas, exceto quando
haja lei especial que o permita ou quando, por razões de interesse público excecional, sejam autorizados pelos membros do 
Governo responsáveis pelas áreas das finanças e da Administração Pública.",213,4, 79,"4. O início e o termo do exercício de funções públicas são obrigatoriamente comunicados à Caixa Geral de Aposentações, I. P. (CGA, 
I. P.), pelos serviços, entidades ou empresas a que se refere o n.º 1 do artigo anterior no prazo máximo de 10 dias a contar dos
mesmos, indicando igualmente o valor da remuneração a auferir, para que a CGA, I. P., possa suspender a pensão ou efetuar o 
pagamento do montante correspondente à diferença entre a remuneração e a pensão."
