,topic_id,topic,alinea_id,alinea,article,a.law_description,ref_alinea_id,ref_alinea,ref_article,ref_law_description
332,58,Extinção da pensão,222,1, 82,"1. A situação de aposentado extingue-se nos casos de: a) (Eliminada) b) Renúncia ao direito à pensão; c) Prescrição do mesmo 
direito; d) Perda da nacionalidade portuguesa, quando esta for exigida para o exercício do cargo pelo qual o interessado foi 
aposentado; e) Falecimento.",191,1, 72,O direito à pensão extingue-se nos casos previstos no n.º 1 do artigo 82.º
