,topic_id,topic,alinea_id,alinea,article,a.law_description,ref_alinea_id,ref_alinea,ref_article,ref_law_description
274,61,Impossibilidade de receber a pensão,172,3, 64,"3. Se o aposentado estiver impossibilitado, de modo permanente ou duradouro, de receber a pensão, ou estiver internado em 
estabelecimento de assistência ou equiparado, poderá o conselho de administração da Caixa, não havendo interdição ou 
inabilitação judicial, autorizar que as pensões sejam pagas à pessoa que superintenda na assistência ao aposentado, ou 
diretamente ao referido estabelecimento, desde que, em qualquer dos casos, a respetiva idoneidade seja atestada pela autoridade 
administrativa com competência para tal.",174,5, 64,"5. O procedimento referido no n.º 3 e a substituição a que alude o n.º 4 devem ser precedidos de assentimento expresso, dado por
escrito, que só será dispensado quando o estado de saúde mental ou psíquico do aposentado o não permitir."
