,topic_id,topic,alinea_id,alinea,article,a.law_description,ref_alinea_id,ref_alinea,ref_article,ref_law_description
0,69,Inscrição,0,1, 2,O disposto no artigo 1.º não prejudica o direito de inscrição atribuído por lei especial anterior ao exercício de quaisquer funções.,61,2, 22,"2. O antigo subscritor será de novo inscrito se for readmitido em quaisquer funções públicas previstas nos artigos 1.º e 2.º e 
satisfizer ao disposto no artigo 4.º "
1,69,Inscrição,0,1, 2,O disposto no artigo 1.º não prejudica o direito de inscrição atribuído por lei especial anterior ao exercício de quaisquer funções.,42,1, 15,"1. O subscritor poderá pedir a dispensa do pagamento de quotas pela contagem de tempo de serviço prestado aos organismos de 
coordenação económica ou a outras entidades referidas no artigo 1.º, desde que tenham sido pagas as contribuições para reforma, 
devidas por esse período, à respetiva instituição de previdência social."
2,69,Inscrição,3,1, 4,"1. A idade máxima para a inscrição na Caixa será a que corresponda à possibilidade de o subscritor perfazer o mínimo de 5 anos de 
serviço até atingir o limite de idade fixado por lei para o exercício do respetivo cargo.",61,2, 22,"2. O antigo subscritor será de novo inscrito se for readmitido em quaisquer funções públicas previstas nos artigos 1.º e 2.º e 
satisfizer ao disposto no artigo 4.º "
3,69,Inscrição,4,2, 4,"2. Os períodos contributivos cumpridos no âmbito de outros regimes de proteção social, na parte em que não se sobreponham aos 
períodos contributivos cumpridos no regime de proteção social convergente, são considerados e relevam para os seguintes efeitos:
a) Cumprimento do prazo de garantia; b) Condições de aposentação ou reforma; c) Determinação da taxa de bonificação; d) 
Apuramento da pensão mínima.",102,5, 37,"5. O tempo de inscrição nas instituições de previdência referidas no n.º 2 do artigo 4.º, quer anterior, quer posterior ao tempo de
inscrição na Caixa, conta-se também para o efeito de se considerar completado o prazo de garantia que resultar do disposto nos 
n.os 3 e 4."
4,69,Inscrição,4,2, 4,"2. Os períodos contributivos cumpridos no âmbito de outros regimes de proteção social, na parte em que não se sobreponham aos 
períodos contributivos cumpridos no regime de proteção social convergente, são considerados e relevam para os seguintes efeitos:
a) Cumprimento do prazo de garantia; b) Condições de aposentação ou reforma; c) Determinação da taxa de bonificação; d) 
Apuramento da pensão mínima.",7,5, 4,"5. Para efeitos do disposto na alínea d) do n.º 2, a pensão apenas é elevada para o montante mínimo legalmente previsto quando o
aposentado ou reformado não perceba pensão ou pensões de valor global igual ou superior à pensão mínima que seria devida com 
base exclusivamente no tempo de serviço da CGA, I. P."
5,69,Inscrição,4,2, 4,"2. Os períodos contributivos cumpridos no âmbito de outros regimes de proteção social, na parte em que não se sobreponham aos 
períodos contributivos cumpridos no regime de proteção social convergente, são considerados e relevam para os seguintes efeitos:
a) Cumprimento do prazo de garantia; b) Condições de aposentação ou reforma; c) Determinação da taxa de bonificação; d) 
Apuramento da pensão mínima.",5,3, 4,"3. Para efeitos do disposto no número anterior, consideram-se outros regimes de proteção social, o regime geral de segurança 
social, os regimes especiais de segurança social, os regimes das caixas de reforma ou previdência ainda subsistentes, o regime de 
segurança social substitutivo constante de instrumento de regulamentação coletiva de trabalho vigente no setor bancário e os 
regimes de segurança social estrangeiros ou internacionais, desde que confiram proteção nas eventualidades de invalidez e velhice. "
63,69,Inscrição,64,1, 24,"1. É contado oficiosamente para a aposentação todo o tempo de serviço prestado por subscritor da Caixa em qualquer das 
situações a que corresponda direito de inscrição. ",73,1, 26,"1. Contar-se-á por inteiro, para eleitos de aposentação, nos termos dos artigos anteriores, ainda que, no todo ou em parte, não 
corresponda a efectiva prestação de serviço:
a) O tempo em razão do qual é atribuída remuneração, total ou parcial, ou subsidio de tratamento, ou é autorizada, em 
consequência de decisão administrativa ou judicial, reparação de qualquer montante;
b) O tempo decorrido em situação que a lei equipare à de exercício do cargo ou mande contar para a aposentação. "
65,69,Inscrição,64,1, 24,"1. É contado oficiosamente para a aposentação todo o tempo de serviço prestado por subscritor da Caixa em qualquer das 
situações a que corresponda direito de inscrição. ",66,3, 24,"3. Considera-se como prestado pelo subscritor no seu quadro de origem o serviço desempenhado em regime de comissão ou 
requisição previsto na lei, bem como o prestado nos quadros de organismos internacionais, nos termos de lei especial. "
67,69,Inscrição,64,1, 24,"1. É contado oficiosamente para a aposentação todo o tempo de serviço prestado por subscritor da Caixa em qualquer das 
situações a que corresponda direito de inscrição. ",93,2, 34,"2. A CGA, I. P., pode efetuar oficiosamente contagens prévias do tempo de serviço a que se refere o artigo 24.º "
69,69,Inscrição,64,1, 24,"1. É contado oficiosamente para a aposentação todo o tempo de serviço prestado por subscritor da Caixa em qualquer das 
situações a que corresponda direito de inscrição. ",65,2, 24,"2. Os contribuintes de outras entidades ou organismos cuja aposentação tenha passado a competir à Caixa são equiparados a 
subscritores desta para os efeitos do n.º 1. "
100,69,Inscrição,92,1, 34,"1. A contagem de tempo de serviço, para efeitos de inscrição ou de aposentação, pode ser requerida pelo interessado:
a) Em processo de contagem prévia, até ser instaurado o processo de aposentação;
b) No processo de aposentação, até neste ser proferida a resolução final a que se refere o n.º 1 do artigo 97.º ",250,1, 97,"1. Concluída a instrução do processo, a administração da Caixa, se julgar verificadas as condições necessárias, proferirá resolução 
final sobre o direito à pensão de aposentação e sobre o montante desta, regulando definitivamente a situação do interessado."
