,topic_id,topic,alinea_id,alinea,article,a.law_description,ref_alinea_id,ref_alinea,ref_article,ref_law_description
379,84,Pensão de reforma,288,2, 120,"2. Nos restantes casos, as pensões de reforma serão calculadas nos termos que estiverem estipulados para o cálculo de pensões de
reserva e demais legislação aplicável.",289,3, 120,"3. O disposto no número anterior não prejudica a opção pela pensão correspondente à remuneração dos cargos mencionados no 
artigo 122.º ou à média decenal prevista no artigo 51.º, desde que se verifiquem as condições exigidas por um ou outro destes
preceitos."
