,topic_id,topic,alinea_id,alinea,article,a.law_description,ref_alinea_id,ref_alinea,ref_article,ref_law_description
45,93,Prestações,44,1, 16,"1. O pagamento previsto no artigo 13.º poderá ser feito por uma só vez ou em prestações mensais, sem acréscimos de novos juros, 
por meio de descontos em folha até ao máximo de 60 prestações, sendo de € 50 o mínimo de cada prestação. ",49,6, 16,6. O montante da prestação mínima referida no n.º 1 poderá ser alterado por despacho do Ministro das Finanças e do Plano. 
47,93,Prestações,44,1, 16,"1. O pagamento previsto no artigo 13.º poderá ser feito por uma só vez ou em prestações mensais, sem acréscimos de novos juros, 
por meio de descontos em folha até ao máximo de 60 prestações, sendo de € 50 o mínimo de cada prestação. ",47,4, 16,"4. Se o interessado estiver em situação em que não receba remuneração ou não sofra desconto de quota, fará o pagamento 
diretamente à Caixa, nas condições que esta fixar para execução do estabelecido nos números anteriores."
49,93,Prestações,44,1, 16,"1. O pagamento previsto no artigo 13.º poderá ser feito por uma só vez ou em prestações mensais, sem acréscimos de novos juros, 
por meio de descontos em folha até ao máximo de 60 prestações, sendo de € 50 o mínimo de cada prestação. ",45,2, 16,"2. Se o pagamento referido no número anterior implicar o desconto, em cada mês, de importância superior à da quota do 
subscritor, é permitido um número maior de prestações, desde que estas sejam, pelo menos, de montante igual ao da mesma 
quota. "
51,93,Prestações,45,2, 16,"2. Se o pagamento referido no número anterior implicar o desconto, em cada mês, de importância superior à da quota do 
subscritor, é permitido um número maior de prestações, desde que estas sejam, pelo menos, de montante igual ao da mesma 
quota. ",47,4, 16,"4. Se o interessado estiver em situação em que não receba remuneração ou não sofra desconto de quota, fará o pagamento 
diretamente à Caixa, nas condições que esta fixar para execução do estabelecido nos números anteriores."
53,93,Prestações,46,3, 16,"3. Na falta de declaração em contrário, feita dentro do prazo de trinta dias, a contar da expedição pela Caixa do aviso de liquidação, 
entende-se que o interessado optou pelo pagamento em prestações e pelo número máximo destas. ",47,4, 16,"4. Se o interessado estiver em situação em que não receba remuneração ou não sofra desconto de quota, fará o pagamento 
diretamente à Caixa, nas condições que esta fixar para execução do estabelecido nos números anteriores."
