referencia_id,referencia,alinea_id,ref_art,ref_ali,article_alinea,relationship_id,alinea_id_ref
76, 4.2 ,5,4,2,4.2,233,4
76, 4.2 d) ,7,4,2,4.2,234,4
83, 5.1 ,9,5,1,5.1,248,8
93, 6.2,11,6,2,6.2,269,12
92, 6.1 ,12,6,1,6.1,266,11
92, 6.1 ,13,6,1,6.1,267,11
94, 6a.1,18,6A,1,6A.1,270,14
95, 6b.1,20,6B,1,6B.1,271,19
95, 6b.1,21,6B,1,6B.1,272,19
96, 6b.2,21,6B,2,6B.2,273,20
118, 8.1,28,8,1,8.1,31,26
119, 8.2,28,8,2,8.2,32,27
20, 13.1,31,13,1,13.1,110,36
12, 11.1,34,11,1,11.1,48,32
12, 11.1,35,11,1,11.1,49,32
35, 19,35,19,1,19.1,136,53
84, 63,35,63,1,63.1,252,163
20, 13.1,37,13,1,13.1,111,36
21, 13.5,40,13,5,13.5,113,40
44, 2,42,2,1,2.1,159,0
25, 15.1,43,15,1,15.1,119,42
80, 53.3,43,53,3,53.3,245,154
86, 63.4,43,63,4,63.4,257,166
20, 13,44,13,1,13.1,112,36
29, 16.1 ,45,16,1,16.1,124,44
29, 16.1,47,16,1,16.1,125,44
30, 16.2,47,16,2,16.2,129,45
31, 16.3,47,16,3,16.3,130,46
32, 16.4,48,16,4,16.4,131,47
29, 16.1,49,16,1,16.1,126,44
33, 17,51,17,1,17.1,132,50
34, 18.1,52,18,1,18.1,134,51
84, 63,53,63,1,63.1,253,163
87, 63.7,53,63,7,63.7,259,168
34, 18,54,18,1,18.1,135,51
82, 57.3,54,57,3,57.3,247,159
35, 19,59,19,1,19.1,137,53
87, 63.7,59,63,7,63.7,260,168
44, 2,61,2,1,2.1,160,0
75, 4,61,4,1,4.1,231,3
49, 34.3,63,34,3,34.3,168,94
0, 101.1,63,101,1,101.1,3,259
1, 101.2,63,101,2,101.2,108,260
2, 102,63,102,1,102.1,127,261
49, 34.3,64,34,3,34.3,169,94
0, 101.1,64,101,1,101.1,4,259
1, 101.2,64,101,2,101.2,109,260
2, 102,64,102,1,102.1,128,261
37, 24.1,65,24,1,24.1,143,64
37, 24.1,66,24,1,24.1,144,64
39, 25a.1,69,25A,1,25A.1,150,68
39, 25a.1,70,25A,1,25A.1,151,68
37, 24,73,24,1,24.1,145,64
38, 25,73,25,1,25.1,148,67
39, 25a,73,25A,1,25A.1,152,68
24, 14,76,14,1,14.1,117,41
25, 15,76,15,1,15.1,120,42
22, 141.2,76,141,2,141.2,114,309
41, 28.1,77,28,1,28.1,155,76
116, 86.3,79,86,3,86.3,29,233
42, 29 ,81,29,1,29.1,156,78
42, 29 ,82,29,1,29.1,157,78
45, 32.1,84,32,1,32.1,161,83
45, 32.1,85,32,1,32.1,162,83
46, 33.1,89,33,1,33.1,163,88
69, 43.1,89,43,1,43.1,215,128
70, 43.2,89,43,2,43.2,218,129
47, 33.2 b) ,90,33,2,33.2,166,89
38, 25,90,25,1,25.1,149,67
124, 97.1,92,97,1,97.1,40,250
37, 24,93,24,1,24.1,146,64
124, 97.1,94,97,1,97.1,41,250
0, 101.1 a),94,101,1,101.1,5,259
65, 40,95,40,1,40.1,205,121
65, 40,96,40,1,40.1,206,121
50, 36.1 ,97,36,1,36.1,171,96
66, 40.2,100,40,2,40.2,207,122
56, 37.1 ,101,37,1,37.1,184,98
57, 37.2 ,101,37,2,37.2,188,99
58,37.3 ,101,37,3,37.3,191,100
76, 4.2 ,102,4,2,4.2,232,4
58, 37.3,102,37,3,37.3,192,100
59, 37.4,102,37,4,37.4,197,101
51, 37A.1 ;,104,37A,1,37A.1,172,103
52, 37A.2 ,105,37A,2,37A.2,176,104
51, 37A.1 ,107,37A,1,37A.1,173,103
53, 37B.1 ,109,37B,1,37B.1,177,108
53, 37B.1 ,110,37B,1,37B.1,178,108
53,37B.1 ,111,37B,1,37B.1,179,108
54, 37B.2 ,111,37B,2,37B.2,182,109
55, 37B.3 ,111,37B,3,37B.3,183,110
61,38A.1,113,38A,1,38A.1,200,112
62, 38A.2,114,38A,2,38A.2,201,113
58, 37.3 ,116,37,3,37.3,193,100
63,39.1,117,39,1,39.1,202,115
69,43.1 ,119,43,1,43.1,211,128
64, 39.4,119,39,4,39.4,203,118
70,43.2 ,120,43,2,43.2,217,129
66, 40.2 ,123,40,2,40.2,208,122
58,37.3 ,124,37,3,37.3,195,100
58,37.3,125,37,3,37.3,196,100
56,37 ,127,37,1,37.1,187,98
69,43.1,130,43,1,43.1,212,128
47,33.2,131,33,2,33.2,164,89
73, 48,137,48,1,48.1,225,142
40,26.2 ,139,26,2,26.2,154,74
72,47.1 ,141,47,1,47.1,220,137
92, 6.1 ,142,6,1,6.1,268,11
72, 47,142,47,1,47.1,221,137
71, 46,143,46,1,46.1,219,136
72, 47,143,47,1,47.1,222,137
73, 48,143,48,1,48.1,226,142
47, 33.2 ,144,33,2,33.2,165,89
77,50.1,145,50,1,50.1,235,144
72, 47,150,47,1,47.1,223,137
73, 48,150,48,1,48.1,227,142
74, 49,150,49,1,49.1,230,143
77, 50,150,50,1,50.1,236,144
18, 12 ,151,12,1,12.1,104,35
73, 48,151,48,1,48.1,228,142
78, 51.1 ,151,51,1,51.1,237,146
79, 53.1,153,53,1,53.1,240,152
25,15 ,154,15,1,15.1,118,42
60,37.5,155,37,5,37.5,199,102
68,  42,156,42,1,42.1,210,126
34,18 ,157,18,1,18.1,133,51
0, 101.1,161,101,1,101.1,0,259
1, 101.2,161,101,2,101.2,107,260
80, 53.3,166,53,3,53.3,242,154
84, 63,167,63,1,63.1,250,163
84, 63.1,168,63,1,63.1,251,163
85, 63.2,168,63,2,63.2,255,164
86, 63.4,168,63,4,63.4,256,166
87,63.7,169,63,7,63.7,258,168
90, 64.7,171,64,7,64.7,264,176
88, 64.3,174,64,3,64.3,261,172
89, 64.4,174,64,4,64.4,262,173
98, 73.2,176,73,2,73.2,275,195
91, 64.9,179,64,9,64.9,265,178
80, 53.3,182,53,3,53.3,243,154
38, 25,182,25,1,25.1,147,67
100, 76,190,76,1,76.1,6,199
103, 77.2,190,77,2,77.2,9,202
104, 77.3,190,77,3,77.3,10,203
114, 82.1,191,82,1,82.1,27,222
126, 99.3,195,99,3,99.3,43,255
99, 74.1,197,74,1,74.1,276,196
125, 99.2,198,99,2,99.2,42,254
101, 76.2,201,76,2,76.2,7,200
102, 77.1,202,77,1,77.1,8,201
105, 78.1,205,78,1,78.1,11,204
105, 78.1,209,78,1,78.1,12,204
106, 79.1,211,79,1,79.1,15,210
105, 78.1,211,78,1,78.1,13,204
106, 79.1,212,79,1,79.1,16,210
105, 78.1,213,78,1,78.1,14,204
112, 80.3,220,80,3,80.3,25,219
111, 80.2,221,80,2,80.2,24,218
48,34.1,250,34,1,34.1,167,92
124, 97,252,97,1,97.1,38,250
124, 97,253,97,1,97.1,39,250
0, 101.1,260,101,1,101.1,1,259
0, 101,261,101,1,101.1,2,259
7, 109.1,272,109,1,109.1,241,271
8, 109.2,273,109,2,109.2,263,272
80, 53.3 ,276,53,3,53.3,244,154
9, 112.1,278,112,1,112.1,277,277
9,112.1,280,112,1,112.1,278,277
10,117.2,282,117,2,117.2,22,286
17, 122 ,286,122,1,122.1,102,294
69, 43,287,43,1,43.1,213,128
15, 120.3,287,120,3,120.3,83,289
14, 120.2,289,120,2,120.2,71,288
17, 122,289,122,1,122.1,103,294
78, 51,289,51,1,51.1,238,146
78,51,291,51,1,51.1,239,146
72, 47,291,47,1,47.1,224,137
73, 48,291,48,1,48.1,229,142
16, 121.1,292,121,1,121.1,97,291
16,121.1,293,121,1,121.1,98,291
81, 56,295,56,1,56.1,246,156
69, 43,297,43,1,43.1,214,128
106, 79,305,79,1,79.1,18,210
123, 95.2,311,95,2,95.2,37,246
56,37.1,115,37,1,37.1,185,98
57,37.2,115,37,2,37.2,189,99
51,37A,115,37A,1,37A.1,174,103
53,37B,115,37B,1,37B.1,180,108
65,40,115,40,1,40.1,204,121
56,37.1,121,37,1,37.1,186,98
57,37.2,121,37,2,37.2,190,99
58,37.3,121,37,3,37.3,194,100
51,37A,121,37A,1,37A.1,175,103
53,37B,121,37B,1,37B.1,181,108
84,63.1,165,63,1,63.1,249,163
85,63.2,165,63,2,63.2,254,164
12,11,165,11,1,11.1,47,32
18,12,165,12,1,12.1,105,35
24,14,165,14,1,14.1,116,41
106,79.1,215,79,1,79.1,17,210
107,79.2,215,79,2,79.2,19,211
108,79.3,215,79,3,79.3,20,212
109,79.4,215,79,4,79.4,21,213
110,79.5,215,79,5,79.5,23,214
115,86.2,233,86,2,86.2,28,232
43,29.2,233,29,2,29.2,158,79
13,120,277,120,1,120.1,60,287
19,139,277,139,1,139.1,106,306
23,142,277,142,1,142.1,115,310
