referencia_id,referencia,alinea_id,ref_art,ref_ali
147,1.,0,1,1
67, 4.2 ,5,4,2
68, 4.2 d) ,7,4,2
80, 5.1 ,9,5,1
178,"[' A partir de 1 de janeiro de 2002', ' a unidade monetária escudo foi substituída pelo euro a partir de 1 de janeiro de 2002', ' nos termos\ndo Decreto-Lei n.º 138/98', ' de 16 de maio (estabelece regras fundamentais a observar no processo de transição para o euro', ' complementando o\nordenamento jurídico comunitário existente). As referências à unidade monetária e ao símbolo gráfico do escudo nos artigos 5.º', ' n.º3', ' 13.º', ' n.º 5', ' 21.º', ' n.º\n2', ' 57.º', ' n.º 2', ' 121.º', ' n.º 2', ' e 134.º devem ser interpretadas como remissão para a unidade monetária euro. O artigo 16.º', ' n.º 1', ' já consagra a referência ao\neuro.']",10,"[' A partir de 1 de janeiro de 2002', ' a unidade monetária escudo foi substituída pelo euro a partir de 1 de janeiro de 2002', ' nos termos\ndo Decreto-Lei n.º 138/98', ' de 16 de maio (estabelece regras fundamentais a observar no processo de transição para o euro', ' complementando o\nordenamento jurídico comunitário existente). As referências à unidade monetária e ao símbolo gráfico do escudo nos artigos 5.º', ' n.º3', ' 13.º', ' n.º 5', ' 21.º', ' n.º\n2', ' 57.º', ' n.º 2', ' 121.º', ' n.º 2', ' e 134.º devem ser interpretadas como remissão para a unidade monetária euro. O artigo 16.º', ' n.º 1', ' já consagra a referência ao\neuro.']",1
90, 6.2,11,6,2
89, 6.1 ,12,6,1
89, 6.1 ,13,6,1
187,"['Acórdão do Tribunal Constitucional (extrato) n.º 255/2020', ' publicado no Diário da República', ' 2.ª série', ' de 31 de julho de 2020 (julga \ninconstitucional', ' por violação do artigo 103.º', ' n.º 3', ' da Constituição', ' a norma do n.º 2 do artigo 261.º da Lei n.º 82-B/2014', ' de 31 de dezembro', ' segundo a \nqual o disposto no artigo 81.º da mesma lei', ' no segmento em que altera a redação do artigo 6.º-A do Estatuto da Aposentação', ' aprovado pelo Decreto-Lei n.º \n498/72', ' de 9 de dezembro', ' produz efeitos a partir de 7 de março de 2014 — dia da entrada em vigor da Lei n.º 11/2014', ' de 6 de março —', ' determinando \nassim um aumento de 0', '95 pontos percentuais da taxa contributiva referente aos meses de março a dezembro de 2014 a cargo das entidades empregadoras \ntitulares de estabelecimentos de ensino particular ou cooperativo não superior', ' relativas aos seus educadores e docentes ainda inscritos na CGA', ' I. P.).']",14,"['Acórdão do Tribunal Constitucional (extrato) n.º 255/2020', ' publicado no Diário da República', ' 2.ª série', ' de 31 de julho de 2020 (julga \ninconstitucional', ' por violação do artigo 103.º', ' n.º 3', ' da Constituição', ' a norma do n.º 2 do artigo 261.º da Lei n.º 82-B/2014', ' de 31 de dezembro', ' segundo a \nqual o disposto no artigo 81.º da mesma lei', ' no segmento em que altera a redação do artigo 6.º-A do Estatuto da Aposentação', ' aprovado pelo Decreto-Lei n.º \n498/72', ' de 9 de dezembro', ' produz efeitos a partir de 7 de março de 2014 — dia da entrada em vigor da Lei n.º 11/2014', ' de 6 de março —', ' determinando \nassim um aumento de 0', '95 pontos percentuais da taxa contributiva referente aos meses de março a dezembro de 2014 a cargo das entidades empregadoras \ntitulares de estabelecimentos de ensino particular ou cooperativo não superior', ' relativas aos seus educadores e docentes ainda inscritos na CGA', ' I. P.).']",1
176,"[' 6a.1; Acórdão do Tribunal Constitucional n.º 362/2016', ' publicado no Diário da República', ' 2.ª série', ' de 11 de julho de 2016 \n[Não julga inconstitucional a norma do artigo 6.º-A', ' n.º 2', ' alínea b)', ' do Estatuto da Aposentação', ' aprovado pelo Decreto-Lei n.º 498/72', ' de 9 de \ndezembro', ' na redação dada pela Lei n.º 3-B/2010', ' de 28 de abril', ' na interpretação de que', ' para as entidades com pessoal relativamente ao \nqual a Caixa Geral de Aposentações', ' I. P.', ' seja responsável unicamente pelo encargo com pensões de sobrevivência', ' é devida uma contribuição \nde 3', '75 % da remuneração do respetivo pessoal sujeita a desconto de quota.]']",15,"[' 6a.1; Acórdão do Tribunal Constitucional n.º 362/2016', ' publicado no Diário da República', ' 2.ª série', ' de 11 de julho de 2016 \n[Não julga inconstitucional a norma do artigo 6.º-A', ' n.º 2', ' alínea b)', ' do Estatuto da Aposentação', ' aprovado pelo Decreto-Lei n.º 498/72', ' de 9 de \ndezembro', ' na redação dada pela Lei n.º 3-B/2010', ' de 28 de abril', ' na interpretação de que', ' para as entidades com pessoal relativamente ao \nqual a Caixa Geral de Aposentações', ' I. P.', ' seja responsável unicamente pelo encargo com pensões de sobrevivência', ' é devida uma contribuição \nde 3', '75 % da remuneração do respetivo pessoal sujeita a desconto de quota.]']",1
193,"['O artigo 7.º da Lei n.º 151/2015', ' de 11 de setembro (que aprova a Lei de Enquadramento Orçamental', ' versão consolidada)', ' revogou a \nLei n.º 91/2001', ' de 20 de agosto (que aprovou a Lei de Enquadramento Orçamental anterior). O regime jurídico do n.º 4 está assim revogado pela \naplicação da nova Lei de Enquadramento Orçamental.']",17,"['O artigo 7.º da Lei n.º 151/2015', ' de 11 de setembro (que aprova a Lei de Enquadramento Orçamental', ' versão consolidada)', ' revogou a \nLei n.º 91/2001', ' de 20 de agosto (que aprovou a Lei de Enquadramento Orçamental anterior). O regime jurídico do n.º 4 está assim revogado pela \naplicação da nova Lei de Enquadramento Orçamental.']",1
100, 6a.1,18,6a,1
101, 6b.1,20,6b,1
101, 6b.1,21,6b,1
102, 6b.2,21,6b,2
179,"[' Art 5º', ' Lei n.º 60/2005', ' 29 de dezembro (versão consolidada); Art\n6º', ' 11º e 48º', ' Decreto-Lei n.º 498/72', ' de 9 de dezembro', ' na sua redação atual; 6b']",22,"[' Art 5º', ' Lei n.º 60/2005', ' 29 de dezembro (versão consolidada); Art\n6º', ' 11º e 48º', ' Decreto-Lei n.º 498/72', ' de 9 de dezembro', ' na sua redação atual; 6b']",1
114, 8.1,28,8,1
115, 8.2,28,8,2
23, 13.1,31,13,1
1, 1,32,1,1
13, 11.1,34,11,1
13, 11.1,35,11,1
38, 19,35,19,1
91, 63,35,63,1
23, 13.1,37,13,1
24, 13.5,40,13,5
39, 2,42,2,1
28, 15.1,43,15,1
85, 53.3,43,53,3
94, 63.4,43,63,4
22, 13,44,13,1
30, 16.1 ,45,16,1
29, 16.1,47,16,1
31, 16.2,47,16,2
32, 16.3,47,16,3
33, 16.4,48,16,4
29, 16.1,49,16,1
35, 17,51,17,1
37, 18.1,52,18,1
91, 63,53,63,1
95, 63.7,53,63,7
36, 18,54,18,1
88, 57.3,54,57,3
38, 19,59,19,1
95, 63.7,59,63,7
1, 1,61,1,1
39, 2,61,2,1
66, 4,61,4,1
51, 34.3,63,34,3
3, 101.1,63,101,1
5, 101.2,63,101,2
6, 102,63,102,1
51, 34.3,64,34,3
3, 101.1,64,101,1
5, 101.2,64,101,2
6, 102,64,102,1
41, 24.1,65,24,1
41, 24.1,66,24,1
1, 1,67,1,1
1, 1,68,1,1
44, 25a.1,69,25a,1
44, 25a.1,70,25a,1
40, 24,73,24,1
42, 25,73,25,1
43, 25a,73,25a,1
25, 14,76,14,1
27, 15,76,15,1
26, 141.2,76,141,2
45, 28.1,77,28,1
121, 86.3,79,86,3
46, 29 ,81,29,1
46, 29 ,82,29,1
47, 32.1,84,32,1
47, 32.1,85,32,1
48, 33.1,89,33,1
74, 43.1,89,43,1
75, 43.2,89,43,2
50, 33.2 b) ,90,33,2
42, 25,90,25,1
126, 97.1,92,97,1
40, 24,93,24,1
126, 97.1,94,97,1
4, 101.1 a),94,101,1
69, 40,95,40,1
69, 40,96,40,1
52, 36.1 ,97,36,1
70, 40.2,100,40,2
72, 40.31,100,40,31
53, 37.1 ,101,37,1
54, 37.2 ,101,37,2
158,37.3 ,101,37,3
67, 4.2 ,102,4,2
55, 37.3,102,37,3
57, 37.4,102,37,4
189,"['Acórdão do Tribunal Constitucional n.º 360/2003', ' publicado no Diário da República', ' 1.ª série', ' de 7 de outubro de 2003 (declara a \ninconstitucionalidade', ' com força obrigatória geral', ' das normas constantes dos n.os 1 a 8 do artigo 9.º da Lei n.º 32-B/2002', ' de 30 de \ndezembro', ' por violação do direito das associações sindicais à participação na elaboração da legislação do trabalho', ' previsto na alínea a) do n.º 2 \ndo artigo 56.º da Constituição). A declaração de inconstitucionalidade determinou o aditamento do artigo 37.º-A.']",103,"['Acórdão do Tribunal Constitucional n.º 360/2003', ' publicado no Diário da República', ' 1.ª série', ' de 7 de outubro de 2003 (declara a \ninconstitucionalidade', ' com força obrigatória geral', ' das normas constantes dos n.os 1 a 8 do artigo 9.º da Lei n.º 32-B/2002', ' de 30 de \ndezembro', ' por violação do direito das associações sindicais à participação na elaboração da legislação do trabalho', ' previsto na alínea a) do n.º 2 \ndo artigo 56.º da Constituição). A declaração de inconstitucionalidade determinou o aditamento do artigo 37.º-A.']",1
59, 37A.1 ;,104,37A,1
60, 37A.2 ,105,37A,2
58, 37A.1 ,107,37A,1
61, 37B.1 ,109,37B,1
61, 37B.1 ,110,37B,1
160,37B.1 ,111,37B,1
62, 37B.2 ,111,37B,2
63, 37B.3 ,111,37B,3
161,38A.1,113,38A,1
64, 38A.2,114,38A,2
185,"['37.1', '37.2', '37A', '37B', '40']",115,"['37.1', ' 37.2', ' 37A', ' 37B', ' 40']",1
56, 37.3 ,116,37,3
162,39.1,117,39,1
164,43.1 ,119,43,1
65, 39.4,119,39,4
165,43.2 ,120,43,2
173,"['37.1', '37.2', '37.3', '37A', '37B']",121,"[' 37.1 ', ' 37.2 ', ' 37.3 ', ' 37A ', ' 37B ']",1
71, 40.2 ,123,40,2
158,37.3 ,124,37,3
157,37.3,125,37,3
156,37 ,127,37,1
186,"['39.7 ; Acórdão do Tribunal Constitucional n.º 134/2019', ' publicado no Diário da República', ' 1.ª série', ' de 3 de abril de 2019 (declara a \ninconstitucionalidade', ' com força obrigatória geral', ' da norma do segmento do artigo 43.º', ' n.º 1', ' do Estatuto da Aposentação', ' na redação dada pela Lei n.º 66-\nB/2012', ' de 31 de dezembro', ' que determina que a aposentação voluntária se rege pela lei em vigor no momento em que for proferido o despacho a \nreconhecer o direito à aposentação); artigo 282.º', ' «Efeitos da declaração de inconstitucionalidade ou de ilegalidade»', ' da Constituição da República.']",128,"['39.7 ; Acórdão do Tribunal Constitucional n.º 134/2019', ' publicado no Diário da República', ' 1.ª série', ' de 3 de abril de 2019 (declara a \ninconstitucionalidade', ' com força obrigatória geral', ' da norma do segmento do artigo 43.º', ' n.º 1', ' do Estatuto da Aposentação', ' na redação dada pela Lei n.º 66-\nB/2012', ' de 31 de dezembro', ' que determina que a aposentação voluntária se rege pela lei em vigor no momento em que for proferido o despacho a \nreconhecer o direito à aposentação); artigo 282.º', ' «Efeitos da declaração de inconstitucionalidade ou de ilegalidade»', ' da Constituição da República.']",1
163,43.1,130,43,1
154,33.2,131,33,2
78, 48,137,48,1
153,26.2 ,139,26,2
174,"[' 6.1', ' 47.1 ; Parecer do Conselho Consultivo da Procuradoria-Geral da República n.º 28/2017', ' publicado no Diário da República', ' 2.ª série', ' \nde 1 de outubro de 2019 (natureza jurídica da participação emolumentar atribuída aos oficiais dos registos e do notariado).']",140,"[' 6.1', ' 47.1 ; Parecer do Conselho Consultivo da Procuradoria-Geral da República n.º 28/2017', ' publicado no Diário da República', ' 2.ª série', ' \nde 1 de outubro de 2019 (natureza jurídica da participação emolumentar atribuída aos oficiais dos registos e do notariado).']",1
166,47.1 ,141,47,1
89, 6.1 ,142,6,1
77, 47,142,47,1
76, 46,143,46,1
77, 47,143,47,1
78, 48,143,48,1
49, 33.2 ,144,33,2
167,50.1,145,50,1
191,"['Acórdão do Tribunal Constitucional n.º 360/2003', ' publicado no Diário daRepública', ' 1.ª série', ' de 7 de outubro de 2003 (declara a \ninconstitucionalidade', ' com força obrigatória geral', ' das normas constantes dos n.os 1 a 8 do artigo 9.º da Lei n.º 32-B/2002', ' de 30 de dezembro', ' por \nviolação do direito das associaçõessindicais à participação na elaboração da legislação do trabalho', ' previsto na alínea a) do n.º 2 do artigo \n56.º da Constituição).']",146,"['Acórdão do Tribunal Constitucional n.º 360/2003', ' publicado no Diário daRepública', ' 1.ª série', ' de 7 de outubro de 2003 (declara a \ninconstitucionalidade', ' com força obrigatória geral', ' das normas constantes dos n.os 1 a 8 do artigo 9.º da Lei n.º 32-B/2002', ' de 30 de dezembro', ' por \nviolação do direito das associaçõessindicais à participação na elaboração da legislação do trabalho', ' previsto na alínea a) do n.º 2 do artigo \n56.º da Constituição).']",1
188,"['Acórdão do Tribunal Constitucional n.º 302/2006', ' publicado no Diário da República', ' 2.ª série', ' de 12 de junho de 2006 (decide não declarar a \ninconstitucionalidade da norma do n.º 3 do artigo 51.º do Estatuto da Aposentação', ' na redação emergente da Lei n.º 1/2004', ' de 15 de janeiro).']",148,"['Acórdão do Tribunal Constitucional n.º 302/2006', ' publicado no Diário da República', ' 2.ª série', ' de 12 de junho de 2006 (decide não declarar a \ninconstitucionalidade da norma do n.º 3 do artigo 51.º do Estatuto da Aposentação', ' na redação emergente da Lei n.º 1/2004', ' de 15 de janeiro).']",1
77, 47,150,47,1
78, 48,150,48,1
79, 49,150,49,1
81, 50,150,50,1
16, 12 ,151,12,1
78, 48,151,48,1
83, 51.1 ,151,51,1
190,"['Acórdão do Tribunal Constitucional n.º 360/2003', ' publicado no Diário da República', ' 1.ª série', ' de 7 de outubro de 2003 (declara a \ninconstitucionalidade', ' com força obrigatória geral', ' das normas constantes dos n.os 1 a 8 do artigo 9.º da Lei n.º 32-B/2002', ' de 30 de dezembro', ' por violação \ndo direito das associações sindicais à participação na elaboração da legislação do trabalho', ' previsto na alínea a) do n.º 2 do artigo 56.ºda Constituição).']",152,"['Acórdão do Tribunal Constitucional n.º 360/2003', ' publicado no Diário da República', ' 1.ª série', ' de 7 de outubro de 2003 (declara a \ninconstitucionalidade', ' com força obrigatória geral', ' das normas constantes dos n.os 1 a 8 do artigo 9.º da Lei n.º 32-B/2002', ' de 30 de dezembro', ' por violação \ndo direito das associações sindicais à participação na elaboração da legislação do trabalho', ' previsto na alínea a) do n.º 2 do artigo 56.ºda Constituição).']",1
84, 53.1,153,53,1
151,15 ,154,15,1
159,37.5,155,37,5
0,  42,156,42,1
152,18 ,157,18,1
3, 101.1,161,101,1
5, 101.2,161,101,2
175,"['63.1', '63.2', '11', '12', '14']",165,"[' 63.1', ' 63.2', ' 11', ' 12', ' 14']",1
85, 53.3,166,53,3
91, 63,167,63,1
92, 63.1,168,63,1
93, 63.2,168,63,2
94, 63.4,168,63,4
169,63.7,169,63,7
98, 64.7,171,64,7
96, 64.3,174,64,3
97, 64.4,174,64,4
104, 73.2,176,73,2
99, 64.9,179,64,9
85, 53.3,182,53,3
42, 25,182,25,1
135, artigo 738.º do Código de Processo Civil,188,artigo 738.º do Código de Processo Civil,1
106, 76,190,76,1
109, 77.2,190,77,2
110, 77.3,190,77,3
118, 82.1,191,82,1
103, 72a.1,193,72a,1
128, 99.3,195,99,3
105, 74.1,197,74,1
127, 99.2,198,99,2
182,"[' arts. 180.º', ' «Escala das sanções disciplinares»', ' e 182.º', ' «Efeitos das sanções disciplinares»', ' da Lei n.º 35/2014', ' de 20 de \njunho.']",199,"[' arts. 180.º', ' «Escala das sanções disciplinares»', ' e 182.º', ' «Efeitos das sanções disciplinares»', ' da Lei n.º 35/2014', ' de 20 de \njunho.']",1
194,"['arts. 180.º', ' «Escala das sanções disciplinares»', ' e 182.º', ' «Efeitos das sanções disciplinares»', ' da Lei n.º 35/2014', ' de 20 de \njunho.']",200,"['arts. 180.º', ' «Escala das sanções disciplinares»', ' e 182.º', ' «Efeitos das sanções disciplinares»', ' da Lei n.º 35/2014', ' de 20 de \njunho.']",1
107, 76.2,201,76,2
108, 77.1,202,77,1
180,"[' O n.º 3 do artigo 77.º remetia para o Código Penal de 1886', ' na versão dada pelo Decreto-Lei n.º 39 688', ' de 5 de junho de 1954', '  e foirevogado \npelo artigo 6.º do Decreto-Lei n.º 400/82', ' de 23 de setembro', ' que aprovou o Novo Código Penal e revogou explicitamente a vigência do n.º 3 do artigo 77.º \ndo Estatuto da Aposentação. A matéria do n.º 3 está hoje consagrada no Titulo III', ' «Das consequências jurídicas do facto»', ' do Livro I', ' «Parte geral»', ' \ndo Código Penal.']",203,"[' O n.º 3 do artigo 77.º remetia para o Código Penal de 1886', ' na versão dada pelo Decreto-Lei n.º 39 688', ' de 5 de junho de 1954', '  e foirevogado \npelo artigo 6.º do Decreto-Lei n.º 400/82', ' de 23 de setembro', ' que aprovou o Novo Código Penal e revogou explicitamente a vigência do n.º 3 do artigo 77.º \ndo Estatuto da Aposentação. A matéria do n.º 3 está hoje consagrada no Titulo III', ' «Das consequências jurídicas do facto»', ' do Livro I', ' «Parte geral»', ' \ndo Código Penal.']",1
183,"[' arts. 6.º', ' n.º 1', ' e 294.º-A', ' n.º 1', ' da Lei n.º 35/2014', ' de 20 de junho.']",204,"[' arts. 6.º', ' n.º 1', ' e 294.º-A', ' n.º 1', ' da Lei n.º 35/2014', ' de 20 de junho.']",1
111, 78.1,205,78,1
111, 78.1,209,78,1
195,"['arts. 6.º', ' n.º 1', ' e 294.º-A', ' n.º 1', ' da Lei n.º 35/2014', ' de 20 de junho.']",210,"['arts. 6.º', ' n.º 1', ' e 294.º-A', ' n.º 1', ' da Lei n.º 35/2014', ' de 20 de junho.']",1
113, 79.1,211,79,1
111, 78.1,211,78,1
113, 79.1,212,79,1
111, 78.1,213,78,1
177,"['79.1', '79.2', '79.3', '79.4', '79.5']",215,"[' 79.1', ' 79.2', ' 79.3', ' 79.4', ' 79.5']",1
192,"['Acórdão do Tribunal Constitucional n.º 411/99', ' publicado no Diário da República', ' 2.ª série', ' de 10 de março de 2000 (julga inconstitucional o n.º 2 \ndo artigo 80.º do Decreto-Lei n.º 498/72', ' de 9 de dezembro', ' por violação do artigo 63.º', ' n.º 4', ' da Constituição da República Portuguesa).']",218,"['Acórdão do Tribunal Constitucional n.º 411/99', ' publicado no Diário da República', ' 2.ª série', ' de 10 de março de 2000 (julga inconstitucional o n.º 2 \ndo artigo 80.º do Decreto-Lei n.º 498/72', ' de 9 de dezembro', ' por violação do artigo 63.º', ' n.º 4', ' da Constituição da República Portuguesa).']",1
117, 80.3,220,80,3
116, 80.2,221,80,2
184,"[' arts. 8.º', ' 12.º', ' 16.º', ' 18.º', ' 19.º e 22.º da Lei n.º 37/81', ' de 3 de outubro (Lei da Nacionalidade); arts. 1.º', ' 15.º', ' 29.º', ' 30.º', ' 31.º', ' 44.º e 62.º \ndo Decreto-Lei n.º 237-A/2006', ' de 14 de dezembro (Regulamento da Nacionalidade Portuguesa); Acórdão do Tribunal Constitucional n.º 72/2002', ' publicado \nno Diário da República', ' 1.ª série', ' de 14 de março de 2002 (declara', ' com força obrigatória geral', ' a inconstitucionalidade da norma do artigo 82.º', ' n.º 1', ' alínea \nd)', ' do Decreto-Lei n.º 498/72', ' de 9 de dezembro (Estatuto da Aposentação)', ' por violação do princípio constante do artigo 15.º', ' n.º 1', ' da Constituição).']",222,"[' arts. 8.º', ' 12.º', ' 16.º', ' 18.º', ' 19.º e 22.º da Lei n.º 37/81', ' de 3 de outubro (Lei da Nacionalidade); arts. 1.º', ' 15.º', ' 29.º', ' 30.º', ' 31.º', ' 44.º e 62.º \ndo Decreto-Lei n.º 237-A/2006', ' de 14 de dezembro (Regulamento da Nacionalidade Portuguesa); Acórdão do Tribunal Constitucional n.º 72/2002', ' publicado \nno Diário da República', ' 1.ª série', ' de 14 de março de 2002 (declara', ' com força obrigatória geral', ' a inconstitucionalidade da norma do artigo 82.º', ' n.º 1', ' alínea \nd)', ' do Decreto-Lei n.º 498/72', ' de 9 de dezembro (Estatuto da Aposentação)', ' por violação do princípio constante do artigo 15.º', ' n.º 1', ' da Constituição).']",1
119, 82.1; arts. 303.º e 305.º da Lei n.º 35/2014 de 20 de junho(Lei Geral do Trabalho em Funções Públicas),224,82.1; arts. 303.º e 305.º da Lei n.º 35/2014 de 20 de junho(Lei Geral do Trabalho em Funções Públicas),1
120,"['86.2', '29.2']",233,86.2; 29.2,1
122, 87; arts. 35.º e 36.º do Código do Notariado,235,87; arts. 35.º e 36.º do Código do Notariado,1
146, n.º 2 do art. 2.ºda Portaria n.º96-B/2008,238,n.º 2 do art. 2.ºda Portaria n.º96-B/2008,1
142, de 30 de janeiro,238,de 30 de janeiro,1
199,n.º 2 do art. 2.º da Portaria n.º 96-B/2008,239,n.º 2 do art. 2.º da Portaria n.º 96-B/2008,1
142, de 30 de janeiro,239,de 30 de janeiro,1
170,91.2.e).f);n.º 2 do art. 2.º da Portaria n.º 96-B/2008,241,91.2.e).f);n.º 2 do art. 2.º da Portaria n.º 96-B/2008,1
143, de 30 de janeiro; n.º 2 do art. 35.º da Lei n.º 35/2014,241,de 30 de janeiro; n.º 2 do art. 35.º da Lei n.º 35/2014,1
139, de 20 de junho,241,de 20 de junho,1
172,Decreto Regulamentar n.º 1/2008,244,Decreto Regulamentar n.º 1/2008,1
138, de 10 de janeiro,244,de 10 de janeiro,1
145, n.º 2 do art. 2.º da Portaria n.º 96-B/2008,245,n.º 2 do art. 2.º da Portaria n.º 96-B/2008,1
142, de 30 de janeiro,245,de 30 de janeiro,1
196,art. 1.º da Portaria n.º 96-A/2008,249,art. 1.º da Portaria n.º 96-A/2008,1
142, de 30 de janeiro,249,de 30 de janeiro,1
155,34.1,250,34,1
125, 97,252,97,1
125, 97,253,97,1
123, 93.3,257,93,3
3, 101.1,260,101,1
8, 104.1,260,104,1
2, 101,261,101,1
7, 103; arts. 164.º,261,103; arts. 164.º,1
34, 165.º e 174.º do Código do Procedimento Administrativo,261,165.º e 174.º do Código do Procedimento Administrativo,1
131, art. 191.º do Código de Processo nos Tribunais Administrativos,262,art. 191.º do Código de Processo nos Tribunais Administrativos,1
137, arts. 44.º a 50.º do Código do Procedimento Administrativo,265,arts. 44.º a 50.º do Código do Procedimento Administrativo,1
197,art. 47.º do Código do Procedimento Administrativo,266,art. 47.º do Código do Procedimento Administrativo,1
132, art. 48.º do Código do Procedimento Administrativo,267,art. 48.º do Código do Procedimento Administrativo,1
133, art. 49.º do Código do Procedimento Administrativo,268,art. 49.º do Código do Procedimento Administrativo,1
198,art. 49.º do Código do Procedimento Administrativo,269,art. 49.º do Código do Procedimento Administrativo,1
11, 109.1,272,109,1
12, 109.2,273,109,2
136, arts. 193.º e 198.º do Código do Procedimento Administrativo e art. 191.º do Código de Processo nos Tribunais Administrativos.,274,arts. 193.º e 198.º do Código do Procedimento Administrativo e art. 191.º do Código de Processo nos Tribunais Administrativos.,1
86, 53.3 ,276,53,3
181,"['120', '139', '142', '161', '164']",277,"[' arts. 120.º', ' 139.º', ' 142.º', ' 161.º e 164.º do Estatuto dos Militares das Forças Armadas e art. 1.º do Decreto-Lei n.º 230/93', ' de 26 de junho\n(extingue a Guarda Fiscal).']",1
14, 112.1,278,112,1
148,112.1,280,112,1
130, art. 15.º do Decreto-Lei n.º 251/2009,281,art. 15.º do Decreto-Lei n.º 251/2009,1
140, de 23 de setembro.,281,de 23 de setembro.,1
149,117.2,282,117,2
21, 122 ,286,122,1
73, 43,287,43,1
18, 120.3,287,120,3
17, 120.2,289,120,2
20, 122,289,122,1
82, 51,289,51,1
168,51,291,51,1
77, 47,291,47,1
78, 48,291,48,1
19, 121.1,292,121,1
150,121.1,293,121,1
87, 56,295,56,1
15, 118.1,295,118,1
73, 43,297,43,1
129, Decreto-Lei n.º 46307,299,Decreto-Lei n.º 46307,1
141, de 27 de abril de 1965,299,de 27 de abril de 1965,1
134, artigo 187.º do Decreto-Lei n.º 35108,300,artigo 187.º do Decreto-Lei n.º 35108,1
144, de 7 de novembro do 1945,300,de 7 de novembro do 1945,1
112, 79,305,79,1
171,93.1,311,93,1
124, 95.2,311,95,2
9, 104.3,311,104,3
10, 107.2,311,107,2
