,topic_id,topic,alinea_id,alinea,article,a.law_description,ref_alinea_id,ref_alinea,ref_article,ref_law_description
39,20,Banca,40,5, 13,"5. A Caixa poderá, por si ou a pedido das instituições de crédito onde os trabalhadores exercem a sua actividade profissional, 
transferir os referidos descontos para o fundo de pensões dos bancários, cobrando, a título de compensação pela prestação de 
serviços, a importância de 10% do montante a transferir, com o limite máximo de 5000$00. ",40,5, 13,"5. A Caixa poderá, por si ou a pedido das instituições de crédito onde os trabalhadores exercem a sua actividade profissional, 
transferir os referidos descontos para o fundo de pensões dos bancários, cobrando, a título de compensação pela prestação de 
serviços, a importância de 10% do montante a transferir, com o limite máximo de 5000$00. "
