,topic_id,topic,alinea_id,alinea,article,a.law_description,ref_alinea_id,ref_alinea,ref_article,ref_law_description
302,33,Cumulação de pensões,210,1, 79,"1. No período que durar o exercício das funções públicas autorizadas, os aposentados, reformados, reservistas fora de efetividade e
equiparados auferem a remuneração que está definida para as funções ou cargo que desempenham ou para o trabalho prestado, 
mantendo o direito à respetiva pensão, quando esta seja superior, e no montante correspondente à diferença entre aquela e esta.",212,3, 79,"3. Cessado o exercício de funções públicas, o pagamento da pensão ou da remuneração de reserva ou equiparada, com valor 
atualizado nos termos gerais, é retomado."
305,33,Cumulação de pensões,210,1, 79,"1. No período que durar o exercício das funções públicas autorizadas, os aposentados, reformados, reservistas fora de efetividade e
equiparados auferem a remuneração que está definida para as funções ou cargo que desempenham ou para o trabalho prestado, 
mantendo o direito à respetiva pensão, quando esta seja superior, e no montante correspondente à diferença entre aquela e esta.",305,1, 137,"O disposto no artigo 79.º não prejudica o regime de abonos dos aposentados que à data da entrada em vigor do presente diploma
já se encontram em exercício de funções."
308,33,Cumulação de pensões,210,1, 79,"1. No período que durar o exercício das funções públicas autorizadas, os aposentados, reformados, reservistas fora de efetividade e
equiparados auferem a remuneração que está definida para as funções ou cargo que desempenham ou para o trabalho prestado, 
mantendo o direito à respetiva pensão, quando esta seja superior, e no montante correspondente à diferença entre aquela e esta.",215,6, 79,"6. O incumprimento pontual do dever de comunicação estabelecido nos números anteriores constitui o dirigente máximo do 
serviço, entidade ou empresa, pessoal e solidariamente responsável, juntamente com o aposentado, pelo reembolso à CGA, I. P.,
das importâncias que esta venha a abonar indevidamente em consequência daquela omissão."
311,33,Cumulação de pensões,210,1, 79,"1. No período que durar o exercício das funções públicas autorizadas, os aposentados, reformados, reservistas fora de efetividade e
equiparados auferem a remuneração que está definida para as funções ou cargo que desempenham ou para o trabalho prestado, 
mantendo o direito à respetiva pensão, quando esta seja superior, e no montante correspondente à diferença entre aquela e esta.",211,2, 79,"2. As condições de cumulação de remunerações referidas no número anterior são reconhecidas no despacho de autorização 
previsto no n.º 1 do artigo anterior"
314,33,Cumulação de pensões,211,2, 79,"2. As condições de cumulação de remunerações referidas no número anterior são reconhecidas no despacho de autorização 
previsto no n.º 1 do artigo anterior",215,6, 79,"6. O incumprimento pontual do dever de comunicação estabelecido nos números anteriores constitui o dirigente máximo do 
serviço, entidade ou empresa, pessoal e solidariamente responsável, juntamente com o aposentado, pelo reembolso à CGA, I. P.,
das importâncias que esta venha a abonar indevidamente em consequência daquela omissão."
317,33,Cumulação de pensões,212,3, 79,"3. Cessado o exercício de funções públicas, o pagamento da pensão ou da remuneração de reserva ou equiparada, com valor 
atualizado nos termos gerais, é retomado.",215,6, 79,"6. O incumprimento pontual do dever de comunicação estabelecido nos números anteriores constitui o dirigente máximo do 
serviço, entidade ou empresa, pessoal e solidariamente responsável, juntamente com o aposentado, pelo reembolso à CGA, I. P.,
das importâncias que esta venha a abonar indevidamente em consequência daquela omissão."
323,33,Cumulação de pensões,214,5, 79,5. São ainda obrigatoriamente comunicadas as alterações de remuneração no âmbito do exercício das funções públicas.,215,6, 79,"6. O incumprimento pontual do dever de comunicação estabelecido nos números anteriores constitui o dirigente máximo do 
serviço, entidade ou empresa, pessoal e solidariamente responsável, juntamente com o aposentado, pelo reembolso à CGA, I. P.,
das importâncias que esta venha a abonar indevidamente em consequência daquela omissão."
