,topic_id,topic,alinea_id,alinea,article,a.law_description,ref_alinea_id,ref_alinea,ref_article,ref_law_description
287,122,Suspensão da pensão,199,1, 76,"1. Na aplicação de penas disciplinares aos aposentados, as de multa, suspensão ou inatividade serão substituídas pela perda da 
pensão de aposentação por igual tempo.",190,1, 71,"O pagamento suspende-se sempre que o aposentado sofra condenação disciplinar ou penal, nos termos do artigo 76.º e dos n.os 2 
e 3 do artigo 77.º"
289,122,Suspensão da pensão,200,2, 76,2. A pena de demissão ou equivalente determina a suspensão do abono da pensão pelo período de três anos.,201,1, 77,1. À demissão ou situação equivalente derivadas de condenação criminal definitiva é aplicável o disposto no n.º 2 do artigo anterior.
293,122,Suspensão da pensão,203,3, 77,"3. Acarreta a perda da pensão pelo tempo correspondente à suspensão a aplicação, por condenação penal definitiva, 
das penas previstas no n.º 6 do artigo 55.º, n.º 3 do artigo 56.º e n.º 2 do artigo 57.º, todos do Código Penal.
(Nota INCM: Esta remissão para o Código Penal de 1886 foi revogada a partir da entrada em vigor do Código Penal de 
1982.)",190,1, 71,"O pagamento suspende-se sempre que o aposentado sofra condenação disciplinar ou penal, nos termos do artigo 76.º e dos n.os 2 
e 3 do artigo 77.º"
320,122,Suspensão da pensão,213,4, 79,"4. O início e o termo do exercício de funções públicas são obrigatoriamente comunicados à Caixa Geral de Aposentações, I. P. (CGA, 
I. P.), pelos serviços, entidades ou empresas a que se refere o n.º 1 do artigo anterior no prazo máximo de 10 dias a contar dos
mesmos, indicando igualmente o valor da remuneração a auferir, para que a CGA, I. P., possa suspender a pensão ou efetuar o 
pagamento do montante correspondente à diferença entre a remuneração e a pensão.",215,6, 79,"6. O incumprimento pontual do dever de comunicação estabelecido nos números anteriores constitui o dirigente máximo do 
serviço, entidade ou empresa, pessoal e solidariamente responsável, juntamente com o aposentado, pelo reembolso à CGA, I. P.,
das importâncias que esta venha a abonar indevidamente em consequência daquela omissão."
