,alinea_id,alinea,article,title,topic,law_description,referencia,dre_link
92,92,1,34, PROCESSO DE CONTAGEM,"['Tempo de Serviço', 'Inscrição']","1. A contagem de tempo de serviço, para efeitos de inscrição ou de aposentação, pode ser requerida pelo interessado:
a) Em processo de contagem prévia, até ser instaurado o processo de aposentação;
b) No processo de aposentação, até neste ser proferida a resolução final a que se refere o n.º 1 do artigo 97.º ",[' 97.1'],https://dre.pt/web/guest/legislacao-consolidada/-/lc/134309077/202012140343/73825466/diploma/indice
93,93,2,34, PROCESSO DE CONTAGEM,['Tempo de Serviço'],"2. A CGA, I. P., pode efetuar oficiosamente contagens prévias do tempo de serviço a que se refere o artigo 24.º ",[' 24(from)'],https://dre.pt/web/guest/legislacao-consolidada/-/lc/134309077/202012140343/73825466/diploma/indice
94,94,3,34, PROCESSO DE CONTAGEM,['Tempo de Serviço'],"3. As resoluções tomadas em processo de contagem prévia pela Caixa são preparatórias da resolução final prevista no n.º 1 do 
artigo 97.º, podendo nesta última, ou antes dela, mediante novas decisões das entidades que a proferiram, ser revistas nos termos 
da alínea a) do n.º 1 do artigo 101.º, revogadas ou reformadas com base em ilegalidade ou modificação da lei. ","[' 97.1', ' 101.1 a)']",https://dre.pt/web/guest/legislacao-consolidada/-/lc/134309077/202012140343/73825466/diploma/indice
