,alinea_id,alinea,article,title,topic,law_description,referencia,dre_link
108,108,1,37B, APOSENTAÇÃO POR CARREIRA LONGA,['Carreira Longa'],"1. Podem requerer a aposentação, independentemente de submissão a junta médica e sem prejuízo da aplicação do regime da 
pensão unificada, os subscritores da CGA com, pelo menos, 60 anos de idade e que: a) Tendo sido inscritos na CGA ou no regime
geral de segurança social em idade igual ou inferior a 16 anos, tenham, pelo menos, 46 anos de serviço; b) Independentemente do 
momento em que tenham sido inscritos na CGA ou no regime geral de segurança social, tenham, pelo menos, 48 anos de serviço.",[''],https://dre.pt/web/guest/legislacao-consolidada/-/lc/134309077/202012140343/73825472/diploma/indice
109,109,2,37B, APOSENTAÇÃO POR CARREIRA LONGA,['Tempo de serviço'],"2. Para efeitos do disposto no número anterior, releva apenas o tempo de exercício efetivo de funções.",[' 37B.1 (from)'],https://dre.pt/web/guest/legislacao-consolidada/-/lc/134309077/202012140343/73825472/diploma/indice
110,110,3,37B, APOSENTAÇÃO POR CARREIRA LONGA,"['Cálculo de Pensão', 'Sustentabilidade', 'Carreira Longa']","3. O valor da pensão de aposentação atribuída ao abrigo do n.º 1 é calculado nos termos gerais, sem redução por aplicação do fator 
de sustentabilidade ou de penalizações por antecipação relativamente à idade normal de acesso à pensão de velhice.",[' 37B.1 (from)'],https://dre.pt/web/guest/legislacao-consolidada/-/lc/134309077/202012140343/73825472/diploma/indice
111,111,4,37B, APOSENTAÇÃO POR CARREIRA LONGA,['Carreira Longa'],"4. A modalidade de aposentação por carreira longa prevista no presente artigo não é aplicável aos subscritores da CGA que 
beneficiam de regimes especiais em matéria de condições de aposentação ou reforma ou em matéria de regras de cálculo ou 
atualização da pensão, nomeadamente os profissionais abrangidos pelos Decretos-Leis n.os 3/2017 e 4/2017, de 6 de janeiro, os 
magistrados e os embaixadores e ministros plenipotenciários.","['37B.1 (from)', ' 37B.2 (from)', ' 37B.3 (from)']",https://dre.pt/web/guest/legislacao-consolidada/-/lc/134309077/202012140343/73825472/diploma/indice
