,alinea_id,alinea,article,title,topic,law_description,referencia,dre_link
96,96,1,36, FORMAS DE APOSENTAÇÃO ,['Direito de Aposentação'],1. A aposentação pode ser voluntária ou obrigatória.,[' 40'],https://dre.pt/web/guest/legislacao-consolidada/-/lc/134309077/202012140343/73825469/diploma/indice
97,97,2,36, FORMAS DE APOSENTAÇÃO ,"['Aposentação Voluntária', 'Aposentação Obrigatória']","2. A aposentação é voluntária quando tem lugar a requerimento do subscritor, nos casos em que a lei a faculta; é obrigatória 
quando resulta de simples determinação da lei ou de imposição da autoridade competente. ",[' 36.1 (from)'],https://dre.pt/web/guest/legislacao-consolidada/-/lc/134309077/202012140343/73825469/diploma/indice
