,alinea_id,alinea,article,title,topic,law_description,referencia,dre_link
103,103,1,37A, APOSENTAÇÃO ANTECIPADA,"['Tempo de Serviço', 'Aposentação Antecipada']","1. Podem requerer a aposentação antecipada, independentemente de submissão a junta médica e sem prejuízo da aplicação do 
regime de pensão unificada, os subscritores que tenham, pelo menos, 60 anos de idade e que, enquanto tiverem essa idade, 
tenham completado, pelo menos, 40 anos de exercício efetivo de funções.","['Acórdão do Tribunal Constitucional n.º 360/2003', ' publicado no Diário da República', ' 1.ª série', ' de 7 de outubro de 2003 (declara a \ninconstitucionalidade', ' com força obrigatória geral', ' das normas constantes dos n.os 1 a 8 do artigo 9.º da Lei n.º 32-B/2002', ' de 30 de \ndezembro', ' por violação do direito das associações sindicais à participação na elaboração da legislação do trabalho', ' previsto na alínea a) do n.º 2 \ndo artigo 56.º da Constituição). A declaração de inconstitucionalidade determinou o aditamento do artigo 37.º-A.']",https://dre.pt/web/guest/legislacao-consolidada/-/lc/134309077/202012140343/73825471/diploma/indice
104,104,2,37A, APOSENTAÇÃO ANTECIPADA,"['Cálculo de Pensão', 'Aposentação Antecipada']","2. O valor da pensão de aposentação antecipada prevista no número anterior é calculado nos termos gerais e reduzido pela 
aplicação de um fator de redução determinado pela fórmula 1 - x, em que x é igual à taxa de redução do valor da pensão.",[' 37A.1 (from);'],https://dre.pt/web/guest/legislacao-consolidada/-/lc/134309077/202012140343/73825471/diploma/indice
105,105,3,37A, APOSENTAÇÃO ANTECIPADA,[''],"3. A taxa global de redução é o produto do número de meses de antecipação em relação à idade normal de acesso à pensão de 
velhice que sucessivamente estiver estabelecida no sistema previdencial do regime geral de segurança social ou à idade pessoal de 
acesso à pensão de velhice pela taxa mensal de 0,5 %.",[' 37A.2 (from)'],https://dre.pt/web/guest/legislacao-consolidada/-/lc/134309077/202012140343/73825471/diploma/indice
106,106,4,37A, APOSENTAÇÃO ANTECIPADA,[''],4. (Revogado),[''],https://dre.pt/web/guest/legislacao-consolidada/-/lc/134309077/202012140343/73825471/diploma/indice
107,107,5,37A, APOSENTAÇÃO ANTECIPADA,['Sustentabilidade'],5. Às pensões atribuídas ao abrigo do n.º 1 não é aplicado o fator de sustentabilidade.,[' 37A.1 (from)'],https://dre.pt/web/guest/legislacao-consolidada/-/lc/134309077/202012140343/73825471/diploma/indice
