,alinea_id,alinea,article,title,topic,law_description,referencia,dre_link
157,157,1,57, DEDUÇÕES NA PENSÃO,"['Cálculo de Pensão', 'Dívida']","1. Serão descontadas na pensão as importâncias em dívida referidas no artigo 18.º, bem como as indemnizações que, por motivo 
da elevação geral de vencimentos, a lei estabeleça.",['18 (from)'],https://dre.pt/web/guest/legislacao-consolidada/-/lc/134309077/202012140343/73825494/diploma/indice
158,158,2,57, DEDUÇÕES NA PENSÃO,['Cálculo de Pensão'],"2. O quantitativo da pensão e dos descontos de qualquer natureza que nela hajam de fazer-se serão sempre arredondados para o 
número exato de escudos, por defeito, se a fração for inferior a $50, e por excesso, se igual ou superior.",[' '],https://dre.pt/web/guest/legislacao-consolidada/-/lc/134309077/202012140343/73825494/diploma/indice
159,159,3,57, DEDUÇÕES NA PENSÃO,['Cálculo de Pensão'],3. As pensões atribuídas pela Caixa Geral de Aposentações estão isentas de imposto do selo.,[' '],https://dre.pt/web/guest/legislacao-consolidada/-/lc/134309077/202012140343/73825494/diploma/indice
