,alinea_id,alinea,article,title,topic,law_description,referencia,dre_link
128,128,1,43, REGIME DA APOSENTAÇÃO,"['Aposentação Voluntária', 'Incapacidade']","1. O regime da aposentação voluntária que não dependa de verificação de incapacidade fixa-se com base na lei em vigor à data em 
que seja recebido o pedido de aposentação pela CGA, sem prejuízo do disposto no n.º 7 do artigo 39.º, e na situação existente à 
data em que o mesmo seja despachado.","['39.7 (from); Acórdão do Tribunal Constitucional n.º 134/2019', ' publicado no Diário da República', ' 1.ª série', ' de 3 de abril de 2019 (declara a \ninconstitucionalidade', ' com força obrigatória geral', ' da norma do segmento do artigo 43.º', ' n.º 1', ' do Estatuto da Aposentação', ' na redação dada pela Lei n.º 66-\nB/2012', ' de 31 de dezembro', ' que determina que a aposentação voluntária se rege pela lei em vigor no momento em que for proferido o despacho a \nreconhecer o direito à aposentação); artigo 282.º', ' «Efeitos da declaração de inconstitucionalidade ou de ilegalidade»', ' da Constituição da República.']",https://dre.pt/web/guest/legislacao-consolidada/-/lc/134309077/202012140343/73825479/diploma/indice
129,129,2,43, REGIME DA APOSENTAÇÃO,"['Carreira Longa', 'Reforma Antecipada', 'Aposentação Compulsiva', 'Incapacidade', 'Situação Clínica']","2. Nas restantes situações, o regime da aposentação fixa-se com base na lei em vigor e na situação existente à data em que: a) Seja
declarada a incapacidade pela competente junta médica ou homologado o parecer desta, quando a lei especial o exija; b) O 
interessado atinja o limite de idade; c) Se profira decisão que imponha pena expulsiva ou se prefira condenação penal definitiva da 
qual resulta a demissão ou que coloque o interessado em situação equivalente.",[''],https://dre.pt/web/guest/legislacao-consolidada/-/lc/134309077/202012140343/73825479/diploma/indice
130,130,3,43, REGIME DA APOSENTAÇÃO,['Regime'],"3. O disposto no n.º 1 não prejudica os efeitos que a lei atribua, em matéria de aposentação, a situações anteriores.",['43.1(from)'],https://dre.pt/web/guest/legislacao-consolidada/-/lc/134309077/202012140343/73825479/diploma/indice
131,131,4,43, REGIME DA APOSENTAÇÃO,"['Regime', 'Remuneração', 'Relevância']",4. É irrelevante qualquer alteração de remunerações ocorrida posteriormente à data a que se refere o n.º 2 do artigo 33.º,['33.2(from)'],https://dre.pt/web/guest/legislacao-consolidada/-/lc/134309077/202012140343/73825479/diploma/indice
