,alinea_id,alinea,article,title,topic,law_description,referencia,dre_link
60,60,1,22, ELIMINAÇÃO DO SUBSCRITOR,"['Cessação de Funções', 'Direito de Inscrição']","1. Será eliminado o subscritor que, a título definitivo, cesse o exercício do seu cargo, salvo se for investido noutro a que 
corresponda igualmente direito de inscrição. ",[''],https://dre.pt/web/guest/legislacao-consolidada/-/lc/134309077/202012140343/73825452/diploma/indice
61,61,2,22, ELIMINAÇÃO DO SUBSCRITOR,['Inscrição'],"2. O antigo subscritor será de novo inscrito se for readmitido em quaisquer funções públicas previstas nos artigos 1.º e 2.º e 
satisfizer ao disposto no artigo 4.º ","[' 1', ' 2', ' 4']",https://dre.pt/web/guest/legislacao-consolidada/-/lc/134309077/202012140343/73825452/diploma/indice
