,alinea_id,alinea,article,title,topic,law_description,referencia,dre_link
287,287,1,120, PASSAGEM DA RESERVA À REFORMA,"['Reforma dos Militares', 'Pensão de Reserva', 'Remuneração']","1. Na reforma de militares que transitem da situação de reserva, e não reúnam as condições legais para a atualização automática 
das respetivas pensões de reserva ou não hajam completado os requisitos fixados na lei para a revisão dessas pensões, a 
remuneração a considerar para os efeitos do artigo 43.º é a que se encontrar estabelecida à data da passagem à reserva, salvo o 
disposto no n.º 3 do presente artigo. Na determinação da pensão de reforma, aquela remuneração será acrescida das últimas 
diuturnidades vigentes para os militares de igual posto, graduação e quadro do ativo, observando-se ainda as normas estabelecidas 
para a generalidade dos subscritores da Caixa.","[' 43', ' 120.3']",https://dre.pt/web/guest/legislacao-consolidada/-/lc/134309077/202012140343/73825564/diploma/indice
288,288,2,120, PASSAGEM DA RESERVA À REFORMA,"['Reforma dos Militares', 'Pensão de Reserva', 'Pensão de Reforma']","2. Nos restantes casos, as pensões de reforma serão calculadas nos termos que estiverem estipulados para o cálculo de pensões de
reserva e demais legislação aplicável.",[''],https://dre.pt/web/guest/legislacao-consolidada/-/lc/134309077/202012140343/73825564/diploma/indice
289,289,3,120, PASSAGEM DA RESERVA À REFORMA,"['Reserva', 'Reforma']","3. O disposto no número anterior não prejudica a opção pela pensão correspondente à remuneração dos cargos mencionados no 
artigo 122.º ou à média decenal prevista no artigo 51.º, desde que se verifiquem as condições exigidas por um ou outro destes
preceitos.","[' 120.2(from)', ' 122', ' 51']",https://dre.pt/web/guest/legislacao-consolidada/-/lc/134309077/202012140343/73825564/diploma/indice
290,290,4,120, PASSAGEM DA RESERVA À REFORMA,"['Pensão de Reforma', 'Reforma dos Militares']","4. Os factos anteriores à concessão da pensão de reserva não podem ser considerados para a reforma, se não constarem do 
processo de passagem à reserva, salvo o caso de contagem de tempo de serviço acrescido ao de subscritor.",[''],https://dre.pt/web/guest/legislacao-consolidada/-/lc/134309077/202012140343/73825564/diploma/indice
