,alinea_id,alinea,article,title,topic,law_description,referencia,dre_link
235,235,1,88, SUPRIMENTO DA PROVA DE TEMPO DE SERVIÇO,"['Prova do Tempo de Serviço', 'Documento Autêntico']","1. Mostrando-se por documento autêntico a impossibilidade de obter a prova a que se refere o artigo anterior, pode o interessado
requerer a instauração de processo especial de justificação nos serviços onde exerceu funções, indicando desde logo os períodos e 
as condições em que as exerceu e foi remunerado e juntando os elementos de que dispuser.",[' 87(from); arts. 35.º e 36.º do Código do Notariado'],https://dre.pt/web/guest/legislacao-consolidada/-/lc/134309077/202012140343/73825529/diploma/indice
236,236,2,88, SUPRIMENTO DA PROVA DE TEMPO DE SERVIÇO,['Prova do Tempo de Serviço'],"2. Os serviços tomarão em consideração os diplomas ou atos de investidura e exoneração, folhas de remunerações, listas de 
antiguidade, livros de ponto e quaisquer outros elementos donde possa inferir-se a efetividade de exercício de funções e 
resolverão, a final, se este se verificou e em que condições, emitindo certidão da resolução.",[' '],https://dre.pt/web/guest/legislacao-consolidada/-/lc/134309077/202012140343/73825529/diploma/indice
237,237,3,88, SUPRIMENTO DA PROVA DE TEMPO DE SERVIÇO,['Prova do Tempo de Serviço'],"3. Tratando-se de funções exercidas em mais de um serviço, o processo poderá ser instaurado somente no último, que solicitará 
dos restantes a instrução e resolução da parte que lhes diga respeito.",[' '],https://dre.pt/web/guest/legislacao-consolidada/-/lc/134309077/202012140343/73825529/diploma/indice
