,alinea_id,alinea,article,title,topic,law_description,referencia,dre_link
26,26,1,8, ENTREGA DE VALORES,"['Entrega/Pagamento de Valores', 'relação contributiva']","1. Após validar as relações contributivas definitivas, a Caixa, até ao dia 7 de cada mês, disponibiliza na sua página eletrónica, em 
área de acesso reservado, as seguintes informações: a) Valor global a entregar, discriminando a parte relativa a quotas, contribuição 
e importâncias de outra natureza; b) Modalidades de pagamento, a definir pelo conselho diretivo da Caixa. ",[''],https://dre.pt/web/guest/legislacao-consolidada/-/lc/134309077/202012140343/73825278/diploma/indice
27,27,2,8, ENTREGA DE VALORES,['Entrega/Pagamento de Valores'],"2. Em função do canal de pagamento escolhido por cada entidade, é disponibilizada a referência identificativa da entrega a efectuar. ",[''],https://dre.pt/web/guest/legislacao-consolidada/-/lc/134309077/202012140343/73825278/diploma/indice
28,28,3,8, ENTREGA DE VALORES,[''],"3. Com base nos elementos referidos nos números anteriores, os serviços e entidades entregam à Caixa, diretamente ou através da 
Direção-Geral do Tesouro e Finanças, o valor correspondente à relação contributiva definitiva até ao dia 15 do mês em que aquela 
seja emitida.","[' 8.1(from)', ' 8.2(from)']",https://dre.pt/web/guest/legislacao-consolidada/-/lc/134309077/202012140343/73825278/diploma/indice
