,alinea_id,alinea,article,title,topic,law_description,referencia,dre_link
306,306,1,139, CONTRIBUIÇÃO DO ESTADO PARA A CAIXA,['Contribuição do Estado'],"O Estado contribuirá anualmente para a Caixa Geral de Aposentações com a quantia necessária para assegurar o equilíbrio 
financeiro da instituição, inscrevendo a verba respetiva no orçamento de despesa do Ministério das Finanças.",[''],https://dre.pt/web/guest/legislacao-consolidada/-/lc/134309077/202012140343/73825585/diploma/indice
