,alinea_id,alinea,article,title,topic,law_description,referencia,dre_link
210,210,1,79, CUMULAÇÃO DE PENSÃO E REMUNERAÇÃO,"['Remuneração', 'Direito à Pensão', 'Cumulação de pensão']","1. No período que durar o exercício das funções públicas autorizadas, os aposentados, reformados, reservistas fora de efetividade e
equiparados auferem a remuneração que está definida para as funções ou cargo que desempenham ou para o trabalho prestado, 
mantendo o direito à respetiva pensão, quando esta seja superior, e no montante correspondente à diferença entre aquela e esta.","['arts. 6.º', ' n.º 1', ' e 294.º-A', ' n.º 1', ' da Lei n.º 35/2014', ' de 20 de junho.']",https://dre.pt/web/guest/legislacao-consolidada/-/lc/134309077/202012140343/73825519/diploma/indice
211,211,2,79, CUMULAÇÃO DE PENSÃO E REMUNERAÇÃO,"['Remuneração', 'Direito à Pensão', 'Cumulação de pensão']","2. As condições de cumulação de remunerações referidas no número anterior são reconhecidas no despacho de autorização 
previsto no n.º 1 do artigo anterior","[' 79.1(from)', ' 78.1']",https://dre.pt/web/guest/legislacao-consolidada/-/lc/134309077/202012140343/73825519/diploma/indice
212,212,3,79, CUMULAÇÃO DE PENSÃO E REMUNERAÇÃO,"['Remuneração', 'Direito à Pensão', 'Cumulação de pensões']","3. Cessado o exercício de funções públicas, o pagamento da pensão ou da remuneração de reserva ou equiparada, com valor 
atualizado nos termos gerais, é retomado.",[' 79.1(from)'],https://dre.pt/web/guest/legislacao-consolidada/-/lc/134309077/202012140343/73825519/diploma/indice
213,213,4,79, CUMULAÇÃO DE PENSÃO E REMUNERAÇÃO,"['Pagamento da Pensão', 'Remuneração', 'Suspensão da Pensão']","4. O início e o termo do exercício de funções públicas são obrigatoriamente comunicados à Caixa Geral de Aposentações, I. P. (CGA, 
I. P.), pelos serviços, entidades ou empresas a que se refere o n.º 1 do artigo anterior no prazo máximo de 10 dias a contar dos
mesmos, indicando igualmente o valor da remuneração a auferir, para que a CGA, I. P., possa suspender a pensão ou efetuar o 
pagamento do montante correspondente à diferença entre a remuneração e a pensão.",[' 78.1'],https://dre.pt/web/guest/legislacao-consolidada/-/lc/134309077/202012140343/73825519/diploma/indice
214,214,5,79, CUMULAÇÃO DE PENSÃO E REMUNERAÇÃO,"['Remuneração', 'cumulação de pensão']",5. São ainda obrigatoriamente comunicadas as alterações de remuneração no âmbito do exercício das funções públicas.,[''],https://dre.pt/web/guest/legislacao-consolidada/-/lc/134309077/202012140343/73825519/diploma/indice
215,215,6,79, CUMULAÇÃO DE PENSÃO E REMUNERAÇÃO,"['Cumulação de Pensão', 'Remuneração']","6. O incumprimento pontual do dever de comunicação estabelecido nos números anteriores constitui o dirigente máximo do 
serviço, entidade ou empresa, pessoal e solidariamente responsável, juntamente com o aposentado, pelo reembolso à CGA, I. P.,
das importâncias que esta venha a abonar indevidamente em consequência daquela omissão.","[' 79.1(from)', ' 79.2(from)', ' 79.3(from)', ' 79.4(from)', ' 79.5(from)']",https://dre.pt/web/guest/legislacao-consolidada/-/lc/134309077/202012140343/73825519/diploma/indice
216,216,7,79, CUMULAÇÃO DE PENSÃO E REMUNERAÇÃO,"['Direito à Pensão', 'Cumulação de Pensão', 'Remuneração']","7. Em caso de realização de estudos, pareceres, projetos ou outros trabalhos especializados, de cariz meramente esporádico ou 
pontual, por aposentados, reformados, reservistas fora de efetividade e equiparados, estes mantêm a respetiva pensão, recebendo 
ainda a prestação única correspondente ao trabalho realizado.",[''],https://dre.pt/web/guest/legislacao-consolidada/-/lc/134309077/202012140343/73825519/diploma/indice
